<?xml version="1.0" encoding="UTF-8"?>
<drawing version="7">
    <attr value="spartan3e" name="DeviceFamilyName">
        <trait delete="all:0" />
        <trait editname="all:0" />
        <trait edittrait="all:0" />
    </attr>
    <netlist>
        <signal name="sw7" />
        <signal name="sw5" />
        <signal name="sw6" />
        <signal name="led0" />
        <signal name="XLXN_5" />
        <signal name="XLXN_6" />
        <signal name="XLXN_7" />
        <signal name="XLXN_8" />
        <signal name="XLXN_11" />
        <port polarity="Input" name="sw7" />
        <port polarity="Input" name="sw5" />
        <port polarity="Input" name="sw6" />
        <port polarity="Output" name="led0" />
        <blockdef name="and2">
            <timestamp>2000-1-1T10:10:10</timestamp>
            <line x2="64" y1="-64" y2="-64" x1="0" />
            <line x2="64" y1="-128" y2="-128" x1="0" />
            <line x2="192" y1="-96" y2="-96" x1="256" />
            <arc ex="144" ey="-144" sx="144" sy="-48" r="48" cx="144" cy="-96" />
            <line x2="64" y1="-48" y2="-48" x1="144" />
            <line x2="144" y1="-144" y2="-144" x1="64" />
            <line x2="64" y1="-48" y2="-144" x1="64" />
        </blockdef>
        <blockdef name="or2">
            <timestamp>2000-1-1T10:10:10</timestamp>
            <line x2="64" y1="-64" y2="-64" x1="0" />
            <line x2="64" y1="-128" y2="-128" x1="0" />
            <line x2="192" y1="-96" y2="-96" x1="256" />
            <arc ex="192" ey="-96" sx="112" sy="-48" r="88" cx="116" cy="-136" />
            <arc ex="48" ey="-144" sx="48" sy="-48" r="56" cx="16" cy="-96" />
            <line x2="48" y1="-144" y2="-144" x1="112" />
            <arc ex="112" ey="-144" sx="192" sy="-96" r="88" cx="116" cy="-56" />
            <line x2="48" y1="-48" y2="-48" x1="112" />
        </blockdef>
        <blockdef name="inv">
            <timestamp>2000-1-1T10:10:10</timestamp>
            <line x2="64" y1="-32" y2="-32" x1="0" />
            <line x2="160" y1="-32" y2="-32" x1="224" />
            <line x2="128" y1="-64" y2="-32" x1="64" />
            <line x2="64" y1="-32" y2="0" x1="128" />
            <line x2="64" y1="0" y2="-64" x1="64" />
            <circle r="16" cx="144" cy="-32" />
        </blockdef>
        <block symbolname="and2" name="XLXI_1">
            <blockpin signalname="XLXN_5" name="I0" />
            <blockpin signalname="sw7" name="I1" />
            <blockpin signalname="XLXN_7" name="O" />
        </block>
        <block symbolname="and2" name="XLXI_2">
            <blockpin signalname="sw5" name="I0" />
            <blockpin signalname="sw6" name="I1" />
            <blockpin signalname="XLXN_8" name="O" />
        </block>
        <block symbolname="or2" name="XLXI_3">
            <blockpin signalname="XLXN_8" name="I0" />
            <blockpin signalname="XLXN_7" name="I1" />
            <blockpin signalname="led0" name="O" />
        </block>
        <block symbolname="inv" name="XLXI_5">
            <blockpin signalname="sw6" name="I" />
            <blockpin signalname="XLXN_5" name="O" />
        </block>
    </netlist>
    <sheet sheetnum="1" width="3520" height="2720">
        <branch name="sw7">
            <wire x2="832" y1="224" y2="224" x1="464" />
        </branch>
        <branch name="sw5">
            <wire x2="832" y1="544" y2="544" x1="464" />
        </branch>
        <branch name="sw6">
            <wire x2="560" y1="480" y2="480" x1="464" />
            <wire x2="832" y1="480" y2="480" x1="560" />
            <wire x2="592" y1="288" y2="288" x1="560" />
            <wire x2="560" y1="288" y2="480" x1="560" />
        </branch>
        <branch name="led0">
            <wire x2="1520" y1="384" y2="384" x1="1504" />
            <wire x2="1584" y1="384" y2="384" x1="1520" />
        </branch>
        <branch name="XLXN_5">
            <wire x2="832" y1="288" y2="288" x1="816" />
        </branch>
        <instance x="832" y="352" name="XLXI_1" orien="R0" />
        <instance x="592" y="320" name="XLXI_5" orien="R0" />
        <iomarker fontsize="28" x="464" y="224" name="sw7" orien="R180" />
        <iomarker fontsize="28" x="464" y="480" name="sw6" orien="R180" />
        <iomarker fontsize="28" x="464" y="544" name="sw5" orien="R180" />
        <instance x="832" y="608" name="XLXI_2" orien="R0" />
        <instance x="1248" y="480" name="XLXI_3" orien="R0" />
        <branch name="XLXN_7">
            <wire x2="1104" y1="256" y2="256" x1="1088" />
            <wire x2="1104" y1="256" y2="352" x1="1104" />
            <wire x2="1248" y1="352" y2="352" x1="1104" />
        </branch>
        <branch name="XLXN_8">
            <wire x2="1104" y1="512" y2="512" x1="1088" />
            <wire x2="1248" y1="416" y2="416" x1="1104" />
            <wire x2="1104" y1="416" y2="512" x1="1104" />
        </branch>
        <iomarker fontsize="28" x="1584" y="384" name="led0" orien="R0" />
    </sheet>
</drawing>